30 Aout (ID 18):
- Manque loots viscidus

22 Septembre (ID 21):
- Manque quelques loots

4 octobre (ID 23):
- Pas de loots recus: https://discordapp.com/channels/630512904726380554/750034669407436840/765180075825954846
